Psychometrics4Neuroscience – 03 - Data Transformation
…
        Filippo Gambarota, PhD

Introduction

library(dplyr)
library(nycflights13)
flights <- nycflights13::flights

Selecting Columns

flights %>% select(year, month, day, dep_delay, arr_delay)

# A tibble: 336,776 × 5
    year month   day dep_delay arr_delay
   <int> <int> <int>     <dbl>     <dbl>
 1  2013     1     1         2        11
 2  2013     1     1         4        20
 3  2013     1     1         2        33
 4  2013     1     1        -1       -18
 5  2013     1     1        -6       -25
 6  2013     1     1        -4        12
 7  2013     1     1        -5        19
 8  2013     1     1        -3       -14
 9  2013     1     1        -3        -8
10  2013     1     1        -2         8
# ℹ 336,766 more rows

Filtering Rows

flights %>% filter(month == 1, day == 1)

# A tibble: 842 × 19
    year month   day dep_time sched_dep_time dep_delay arr_time sched_arr_time
   <int> <int> <int>    <int>          <int>     <dbl>    <int>          <int>
 1  2013     1     1      517            515         2      830            819
 2  2013     1     1      533            529         4      850            830
 3  2013     1     1      542            540         2      923            850
 4  2013     1     1      544            545        -1     1004           1022
 5  2013     1     1      554            600        -6      812            837
 6  2013     1     1      554            558        -4      740            728
 7  2013     1     1      555            600        -5      913            854
 8  2013     1     1      557            600        -3      709            723
 9  2013     1     1      557            600        -3      838            846
10  2013     1     1      558            600        -2      753            745
# ℹ 832 more rows
# ℹ 11 more variables: arr_delay <dbl>, carrier <chr>, flight <int>,
#   tailnum <chr>, origin <chr>, dest <chr>, air_time <dbl>, distance <dbl>,
#   hour <dbl>, minute <dbl>, time_hour <dttm>

Arranging Rows

flights %>% arrange(desc(dep_delay))

# A tibble: 336,776 × 19
    year month   day dep_time sched_dep_time dep_delay arr_time sched_arr_time
   <int> <int> <int>    <int>          <int>     <dbl>    <int>          <int>
 1  2013     1     9      641            900      1301     1242           1530
 2  2013     6    15     1432           1935      1137     1607           2120
 3  2013     1    10     1121           1635      1126     1239           1810
 4  2013     9    20     1139           1845      1014     1457           2210
 5  2013     7    22      845           1600      1005     1044           1815
 6  2013     4    10     1100           1900       960     1342           2211
 7  2013     3    17     2321            810       911      135           1020
 8  2013     6    27      959           1900       899     1236           2226
 9  2013     7    22     2257            759       898      121           1026
10  2013    12     5      756           1700       896     1058           2020
# ℹ 336,766 more rows
# ℹ 11 more variables: arr_delay <dbl>, carrier <chr>, flight <int>,
#   tailnum <chr>, origin <chr>, dest <chr>, air_time <dbl>, distance <dbl>,
#   hour <dbl>, minute <dbl>, time_hour <dttm>

Creating New Variables

flights %>% mutate(speed = distance / air_time * 60)

# A tibble: 336,776 × 20
    year month   day dep_time sched_dep_time dep_delay arr_time sched_arr_time
   <int> <int> <int>    <int>          <int>     <dbl>    <int>          <int>
 1  2013     1     1      517            515         2      830            819
 2  2013     1     1      533            529         4      850            830
 3  2013     1     1      542            540         2      923            850
 4  2013     1     1      544            545        -1     1004           1022
 5  2013     1     1      554            600        -6      812            837
 6  2013     1     1      554            558        -4      740            728
 7  2013     1     1      555            600        -5      913            854
 8  2013     1     1      557            600        -3      709            723
 9  2013     1     1      557            600        -3      838            846
10  2013     1     1      558            600        -2      753            745
# ℹ 336,766 more rows
# ℹ 12 more variables: arr_delay <dbl>, carrier <chr>, flight <int>,
#   tailnum <chr>, origin <chr>, dest <chr>, air_time <dbl>, distance <dbl>,
#   hour <dbl>, minute <dbl>, time_hour <dttm>, speed <dbl>

Renaming Columns

flights %>% rename(departure_delay = dep_delay, arrival_delay = arr_delay)

# A tibble: 336,776 × 19
    year month   day dep_time sched_dep_time departure_delay arr_time
   <int> <int> <int>    <int>          <int>           <dbl>    <int>
 1  2013     1     1      517            515               2      830
 2  2013     1     1      533            529               4      850
 3  2013     1     1      542            540               2      923
 4  2013     1     1      544            545              -1     1004
 5  2013     1     1      554            600              -6      812
 6  2013     1     1      554            558              -4      740
 7  2013     1     1      555            600              -5      913
 8  2013     1     1      557            600              -3      709
 9  2013     1     1      557            600              -3      838
10  2013     1     1      558            600              -2      753
# ℹ 336,766 more rows
# ℹ 12 more variables: sched_arr_time <int>, arrival_delay <dbl>,
#   carrier <chr>, flight <int>, tailnum <chr>, origin <chr>, dest <chr>,
#   air_time <dbl>, distance <dbl>, hour <dbl>, minute <dbl>, time_hour <dttm>

Relocating Columns

flights %>% relocate(dep_delay, arr_delay, .before = distance)

# A tibble: 336,776 × 19
    year month   day dep_time sched_dep_time arr_time sched_arr_time carrier
   <int> <int> <int>    <int>          <int>    <int>          <int> <chr>  
 1  2013     1     1      517            515      830            819 UA     
 2  2013     1     1      533            529      850            830 UA     
 3  2013     1     1      542            540      923            850 AA     
 4  2013     1     1      544            545     1004           1022 B6     
 5  2013     1     1      554            600      812            837 DL     
 6  2013     1     1      554            558      740            728 UA     
 7  2013     1     1      555            600      913            854 B6     
 8  2013     1     1      557            600      709            723 EV     
 9  2013     1     1      557            600      838            846 B6     
10  2013     1     1      558            600      753            745 AA     
# ℹ 336,766 more rows
# ℹ 11 more variables: flight <int>, tailnum <chr>, origin <chr>, dest <chr>,
#   air_time <dbl>, dep_delay <dbl>, arr_delay <dbl>, distance <dbl>,
#   hour <dbl>, minute <dbl>, time_hour <dttm>
…
Using Pipes

flights %>% 
  filter(month == 1, day == 1) %>% 
  select(year, month, day, carrier, flight)

# A tibble: 842 × 5
    year month   day carrier flight
   <int> <int> <int> <chr>    <int>
 1  2013     1     1 UA        1545
 2  2013     1     1 UA        1714
 3  2013     1     1 AA        1141
 4  2013     1     1 B6         725
 5  2013     1     1 DL         461
 6  2013     1     1 UA        1696
 7  2013     1     1 B6         507
 8  2013     1     1 EV        5708
 9  2013     1     1 B6          79
10  2013     1     1 AA         301
# ℹ 832 more rows
…
