Functional programming examples – Psychometrics4Neuroscience
…
# using nested tibbles

dat |> 
    group_by(Species) |> 
    nest() |> 
    mutate(boot = map(data, boot)) |> 
    select(-data) |> 
    unnest(boot) |> 
    mutate(fit = map(boot, fit_lm)) |> 
    mutate(res = map(fit, sum_lm)) |> 
    select(-boot, -fit) |> 
    unnest(res)

# A tibble: 900 × 8
# Groups:   Species [3]
   Species param            b    se      t     pval  ci.lb ci.ub
   <fct>   <chr>        <dbl> <dbl>  <dbl>    <dbl>  <dbl> <dbl>
 1 setosa  (Intercept)  4.27  0.369 11.6   2.20e-15  3.53  5.01 
 2 setosa  Petal.Width  1.57  0.596  2.64  1.12e- 2  0.376 2.77 
 3 setosa  Petal.Length 0.280 0.265  1.06  2.96e- 1 -0.253 0.813
 4 setosa  (Intercept)  3.62  0.460  7.87  4.02e-10  2.70  4.55 
 5 setosa  Petal.Width  0.457 0.575  0.796 4.30e- 1 -0.699 1.61 
 6 setosa  Petal.Length 0.847 0.353  2.40  2.05e- 2  0.136 1.56 
 7 setosa  (Intercept)  4.17  0.473  8.81  1.62e-11  3.22  5.12 
 8 setosa  Petal.Width  0.297 0.469  0.632 5.30e- 1 -0.648 1.24 
 9 setosa  Petal.Length 0.591 0.348  1.70  9.63e- 2 -0.110 1.29 
10 setosa  (Intercept)  4.22  0.431  9.78  6.55e-13  3.35  5.08 
# ℹ 890 more rows
